[
  {
    "id": 2392551609,
    "doi": "",
    "papertitle": "simulation of direct drive x y table based on recurrent neural network control",
    "year": "2009-01-01",
    "citationcount": 0,
    "journame": "journal of shenyang university of technology",
    "topics": [
      "control engineering",
      "robustness",
      "recurrent neural network",
      "computer science",
      "artificial neural network",
      "intelligent control",
      "integrated design",
      "control theory",
      "gradient descent",
      "controller",
      "fuzzy logic"
    ],
    "authors": [
      {
        "order": 1,
        "id": 2007413655,
        "name": "liu chunfang",
        "gridid": "grid.443558.b",
        "affiliation": "Shenyang University of Technology",
        "country": "China"
      }
    ],
    "abstract": "A self-constructing fuzzy recurrent neural network (SCFNN) controller was presented for various disturbances existing in permanent magnet linear synchronous motor ( PMLSM) driven X-Y table. The tangential-contouring error controller was adopted for the integrated design. The proposed controller combines the merits of self-constructing fuzzy neural network and recurrent neural network ( RNN). The simulation results show that the proposed controller can restrain the parameter variation and external disturbances. The method can reduce the contouring error and has strong robustness.",
    "cso_syntactic_topics": [
      "fuzzy neural networks",
      "recurrent neural networks"
    ],
    "cso_annotated": true,
    "cso_semantic_topics": [
      "recurrent neural networks",
      "neural networks",
      "fuzzy neural networks",
      "feedforward neural networks",
      "fuzzy sets"
    ],
    "cso_enhanced_topics": [
      "neural networks",
      "fuzzy sets",
      "feedforward neural networks",
      "recurrent neural networks",
      "fuzzy neural networks",
      "machine learning",
      "mathematics",
      "fuzzy control",
      "artificial intelligence",
      "computer science"
    ],
    "types": {
      "Education": 100.0
    },
    "countries": {
      "China": 100.0
    }
  },
  {
    "citationcount": 3,
    "cso_annotated": true,
    "references": [
      2370527522
    ],
    "year": "2007-01-01",
    "topics": [
      "control engineering",
      "applied research",
      "real time control system",
      "model predictive control",
      "decarburization",
      "computer science",
      "artificial neural network",
      "fuzzy control system",
      "control theory"
    ],
    "papertitle": "applied research in fuzzy neural network predictive control",
    "confseries": "ICCI ",
    "abstract": "Being aimed at the problem that non-linear and long lag-time technological processes are difficult to control, this paper puts forward a predictive control method which combines BP neural network with fuzzy control. After having tested real-time control of the synthetic ammonia decarburization calcinations processes in a decarburization factory, this method is proved to be effective.",
    "cso_syntactic_topics": [
      "fuzzy neural networks",
      "bp neural networks",
      "fuzzy control"
    ],
    "urls": [
      "http://dl.acm.org/citation.cfm?id=1524293.1524427",
      "https://www.computer.org/web/csdl/index/-/csdl/proceedings/icci/2007/1327/00/04341917-abs.html",
      "https://dl.acm.org/citation.cfm?id=1524293.1524427",
      "http://yadda.icm.edu.pl/yadda/element/bwmeta1.element.ieee-000004341917",
      "http://dl.acm.org/citation.cfm?id=1524427",
      "http://dblp.uni-trier.de/db/conf/IEEEicci/IEEEicci2007.html#LiLYWG07"
    ],
    "cso_semantic_topics": [
      "fuzzy sets",
      "neural networks",
      "fuzzy neural networks",
      "fuzzy control",
      "feedforward neural networks"
    ],
    "id": 2005023258,
    "cso_enhanced_topics": [
      "feedforward neural networks",
      "neural networks",
      "fuzzy control",
      "fuzzy neural networks",
      "bp neural networks",
      "fuzzy sets",
      "machine learning",
      "backpropagation algorithm",
      "mathematics",
      "artificial intelligence",
      "computer science"
    ],
    "doi": "10.1109/COGINF.2007.4341917",
    "authors": [
      {
        "country": "China",
        "affiliation": "Hebei University of Science and Technology",
        "name": "zhenyu wang",
        "id": 2652776394,
        "gridid": "grid.462323.2",
        "order": 4
      },
      {
        "country": "China",
        "affiliation": "Hebei University of Science and Technology",
        "name": "wei li",
        "id": 2425735897,
        "gridid": "grid.462323.2",
        "order": 2
      },
      {
        "country": "China",
        "affiliation": "Hebei University of Science and Technology",
        "name": "yongwei li",
        "id": 2119796960,
        "gridid": "grid.462323.2",
        "order": 1
      },
      {
        "country": "China",
        "affiliation": "Hebei University of Science and Technology",
        "name": "guoqing yu",
        "id": 2159987242,
        "gridid": "grid.462323.2",
        "order": 3
      },
      {
        "country": "China",
        "affiliation": "Hebei University of Science and Technology",
        "name": "peng guo",
        "id": 2441570609,
        "gridid": "grid.462323.2",
        "order": 5
      }
    ],
    "types": {
      "Education": 100.0
    },
    "countries": {
      "China": 100.0
    }
  },
  {
    "citationcount": 2,
    "confname": "ICNC 2011",
    "cso_annotated": true,
    "references": [
      1522676482,
      2155757348,
      1217151387,
      2118706537,
      2058417501,
      2045671410,
      2072343584,
      1978355251,
      2145039203,
      2150354929,
      1581808154,
      1492221128
    ],
    "year": "2011-01-01",
    "topics": [
      "recurrent neural network",
      "machine learning",
      "traffic flow",
      "artificial intelligence",
      "computer science",
      "artificial neural network",
      "feedforward neural network"
    ],
    "papertitle": "short term traffic flow forecasting via echo state neural networks",
    "confseries": "ICNC",
    "abstract": "An algorithm for short term traffic flaw prediction based on echo state neural networks (ESN) is proposed in this paper. ESN is a new paradigm for using recurrent neural networks (RNNs) with a simpler training method. While the prediction, traffic flow patterns are treated as time series signals; no further information is used than the past traffic flaw data records, such as weather, traffic accidents. The relation between key parameter of the ESN and the predicting performance is discussed; ESN and feed forward neural network (FNN) are compared with the same task also. Simulation experiment results demonstrate that the proposed ESN algorithm is valid and can obtain more accurate predicting results than the FNN for the short-term traffic flaw prediction problem.",
    "confplace": "http://icnc-fskd.dhu.edu.cn",
    "cso_syntactic_topics": [
      "recurrent neural networks",
      "neural networks"
    ],
    "urls": [
      "http://dblp.uni-trier.de/db/conf/icnc/icnc2011.html#AnSZ11",
      "http://ieeexplore.ieee.org/xpls/abs_all.jsp?arnumber=6022154",
      "http://yadda.icm.edu.pl/yadda/element/bwmeta1.element.ieee-000006022154",
      "http://dx.doi.org/10.1109/ICNC.2011.6022154"
    ],
    "cso_semantic_topics": [
      "neural networks",
      "recurrent neural networks",
      "network architecture",
      "fuzzy neural networks",
      "feedforward neural networks"
    ],
    "id": 2013492700,
    "cso_enhanced_topics": [
      "neural networks",
      "fuzzy neural networks",
      "feedforward neural networks",
      "recurrent neural networks",
      "network architecture",
      "machine learning",
      "fuzzy control",
      "network protocols",
      "artificial intelligence",
      "fuzzy sets",
      "internet",
      "computer network",
      "computer science",
      "mathematics"
    ],
    "doi": "10.1109/ICNC.2011.6022154",
    "authors": [
      {
        "country": "China",
        "affiliation": "Chang'an University",
        "name": "yisheng an",
        "id": 2694686882,
        "gridid": "grid.440661.1",
        "order": 1
      },
      {
        "country": "China",
        "affiliation": "Chang'an University",
        "name": "qingsong song",
        "id": 2762260509,
        "gridid": "grid.440661.1",
        "order": 2
      },
      {
        "country": "China",
        "affiliation": "Chang'an University",
        "name": "xiangmo zhao",
        "id": 2630077680,
        "gridid": "grid.440661.1",
        "order": 3
      }
    ],
    "types": {
      "Education": 100.0
    },
    "countries": {
      "China": 100.0
    }
  },
  {
    "id": 2376428028,
    "doi": "",
    "papertitle": "study of gyroscope random error based on drnn",
    "year": "2015-01-01",
    "citationcount": 0,
    "topics": [
      "fibre optic gyroscope",
      "recurrent neural network",
      "computer science",
      "autoregressive moving average model",
      "artificial neural network",
      "random error",
      "control theory",
      "gyroscope"
    ],
    "authors": [
      {
        "country": "Spain",
        "affiliation": "Spanish National Research Council",
        "name": "yang yixin",
        "id": 2475607349,
        "gridid": "grid.4711.3",
        "order": 1
      }
    ],
    "abstract": "For the gyroscope random error,this paper uses the diagonal neural network( DRNN)modeling. The paper gives the structure and mathematical model of DRNN,and proves that DRNN as internal recurrent neural network does not have to assume the model order. Then LM algorithm is utilized to optimize the BP algorithm and derive DRNN applicable LMBP algorithm to train the network. DRNN is used to model fiber optic gyro random error. Simulation results show that DRNN modeling method is more effective and convenient than ARMA model and external recurrent BP network.",
    "cso_syntactic_topics": [
      "recurrent neural networks",
      "bp networks",
      "gyroscopes",
      "bp algorithm",
      "neural networks"
    ],
    "cso_annotated": true,
    "cso_semantic_topics": [
      "gyroscopes",
      "neural networks",
      "recurrent neural networks",
      "accelerometers",
      "feedforward neural networks"
    ],
    "cso_enhanced_topics": [
      "recurrent neural networks",
      "bp networks",
      "gyroscopes",
      "bp algorithm",
      "accelerometers",
      "feedforward neural networks",
      "neural networks",
      "bp neural networks",
      "backpropagation algorithm",
      "sensors",
      "machine learning",
      "computer hardware",
      "artificial intelligence",
      "computer science"
    ],
    "types": {
      "Government": 100.0
    },
    "countries": {
      "Spain": 100.0
    }
  },
  {
    "id": 328710042,
    "doi": "10.1007/978-3-319-08156-4_39",
    "papertitle": "bagging technique using temporal expansion functions",
    "year": "2014-01-01",
    "citationcount": 0,
    "topics": [
      "reservoir computing",
      "bootstrap aggregating",
      "mean squared prediction error",
      "recurrent neural network",
      "machine learning",
      "bootstrapping",
      "computer science",
      "artificial intelligence",
      "training set",
      "ensemble learning",
      "encoding"
    ],
    "references": [
      2112076978,
      2010511653,
      2147107577,
      2036451492,
      2017461916,
      2088860100,
      2336168644,
      2093717447,
      2134342468,
      2103179919,
      1521228116,
      2169074879,
      1867196520,
      1217151387,
      2125566231,
      2171865010,
      2177933918,
      1987299193,
      1996102080,
      2620828027,
      2084610394,
      2102865756,
      2159682675,
      2020362675
    ],
    "urls": [
      "https://link.springer.com/chapter/10.1007/978-3-319-08156-4_39",
      "https://link.springer.com/content/pdf/10.1007%2F978-3-319-08156-4_39.pdf"
    ],
    "authors": [
      {
        "country": "Czechia",
        "affiliation": "Technical University of Ostrava",
        "name": "sebastian basterrech",
        "id": 2003180847,
        "gridid": "grid.440850.d",
        "order": 1
      },
      {
        "name": "andrea mesa",
        "id": 2095783457,
        "order": 2
      }
    ],
    "abstract": "The Bootstrap aggregating (Bagging) technique is widely used in the Machine Learning area, in order to reduce the prediction error of several unstable predictors. The method trains many predictors using bootstrap samples and combine them generating a new power learning tool. Although, if the training data has temporal dependency the technique is not applicable. One of the most efficient models for the treatment of time series is the Recurrent Neural Network (RNN) model. In this article, we use a RNN to encode the temporal dependency of the input data, then in the new encoding space the Bagging technique can be applied. We analyze the behavior of various neural activation functions for encoding the input data. We use three simulated and three real time-series data to analyze our approach.",
    "cso_syntactic_topics": [
      "machine learning",
      "learning",
      "recurrent neural networks"
    ],
    "cso_annotated": true,
    "cso_semantic_topics": [
      "learning",
      "machine learning",
      "recurrent neural networks",
      "neural networks",
      "feedforward neural networks"
    ],
    "cso_enhanced_topics": [
      "neural networks",
      "machine learning",
      "feedforward neural networks",
      "recurrent neural networks",
      "learning",
      "artificial intelligence",
      "education",
      "computer science"
    ],
    "types": {
      "Education": 100.0
    },
    "countries": {
      "Czechia": 100.0
    }
  },
  {
    "citationcount": 1,
    "confname": "WCICA 2008",
    "cso_annotated": true,
    "year": "2008-01-01",
    "topics": [
      "control engineering",
      "boiler",
      "backpropagation",
      "machine learning",
      "computer science",
      "artificial intelligence",
      "artificial neural network",
      "intelligent control",
      "automation",
      "fuzzy control system",
      "neuro fuzzy",
      "fuzzy logic"
    ],
    "papertitle": "the research on the fault diagnosis for boiler system based on fuzzy neural network",
    "confseries": "WCICA",
    "abstract": "The fuzzy logic was pulled in the neural network and the application of fault diagnosis for boiler system with the integrated fuzzy neural network is researched on the basic of the introductions of the basic principle of artificial neural network (ANN) and the principle of fault diagnosis for boiler system based on neural network. A example of training progress and testing results about the sample of boiler was given. And at last, it is proved that this integrated method can acquire a better result on fault diagnosis for boiler through error analysis compared with the traditional standard BP network.",
    "confplace": "",
    "cso_syntactic_topics": [
      "fuzzy neural networks",
      "ann",
      "bp networks",
      "fuzzy logic",
      "neural networks"
    ],
    "urls": [
      "http://ieeexplore.ieee.org/xpls/abs_all.jsp?arnumber=4594273",
      "http://yadda.icm.edu.pl/yadda/element/bwmeta1.element.ieee-000004594273",
      "http://ieeexplore.ieee.org/xpl/articleDetails.jsp?arnumber=4594273&contentType=Conference+Publications"
    ],
    "cso_semantic_topics": [
      "fuzzy logic",
      "neural networks",
      "fuzzy neural networks",
      "ann",
      "feedforward neural networks"
    ],
    "id": 2073312981,
    "cso_enhanced_topics": [
      "feedforward neural networks",
      "fuzzy neural networks",
      "ann",
      "bp networks",
      "fuzzy logic",
      "neural networks",
      "fuzzy control",
      "backpropagation algorithm",
      "bp neural networks",
      "fuzzy sets",
      "machine learning",
      "mathematics",
      "artificial intelligence",
      "computer science"
    ],
    "doi": "10.1109/WCICA.2008.4594273",
    "authors": [
      {
        "country": "China",
        "affiliation": "Shenyang Ligong University",
        "name": "yawei zhao",
        "id": 2798487146,
        "gridid": "grid.412560.4",
        "order": 1
      },
      {
        "country": "China",
        "affiliation": "Shenyang Ligong University",
        "name": "liang chen",
        "id": 2443650748,
        "gridid": "grid.412560.4",
        "order": 2
      },
      {
        "country": "China",
        "affiliation": "Shenyang Ligong University",
        "name": "qing yang",
        "id": 2303011763,
        "gridid": "grid.412560.4",
        "order": 3
      }
    ],
    "types": {
      "Education": 100.0
    },
    "countries": {
      "China": 100.0
    }
  },
  {
    "citationcount": 11,
    "cso_annotated": true,
    "references": [
      1217151387,
      2065134213,
      2022029210,
      1543512633,
      2091292881,
      2098034531,
      1522456329,
      1995529084,
      2001263627,
      2062210787,
      2103179919,
      2128084896,
      1570412513
    ],
    "year": "2008-01-01",
    "topics": [
      "situated",
      "attractor",
      "echo state network",
      "recurrent neural network",
      "machine learning",
      "scalability",
      "artificial intelligence",
      "computer science",
      "artificial neural network",
      "evolvability",
      "embodied cognition"
    ],
    "papertitle": "monostable controllers for adaptive behaviour",
    "confseries": "SAB",
    "abstract": "Recent artificial neural networks for machine learning have exploited transient dynamics around globally stable attractors, inspired by the properties of cortical microcolumns. Here we explore whether similarly constrained neural network controllers can be exploited for embodied, situated adaptive behaviour. We demonstrate that it is possible to evolve globally stable neurocontrollers containing a single basin of attraction, which nevertheless sustain multiple modes of behaviour. This is achieved by exploiting interaction between environmental input and transient dynamics. We present results that suggest that this globally stable regime may constitute an evolvable and dynamically rich subset of recurrent neural network configurations, especially in larger networks. We discuss the issue of scalability and the possibility that there may be alternative adaptive behaviour tasks that are more `attractor hungry'.",
    "cso_syntactic_topics": [
      "recurrent neural networks",
      "machine learning",
      "neural networks"
    ],
    "urls": [
      "https://link.springer.com/chapter/10.1007%2F978-3-540-69134-1_11",
      "https://eprints.soton.ac.uk/266775/",
      "https://rd.springer.com/content/pdf/10.1007%2F978-3-540-69134-1_11.pdf",
      "http://dblp.uni-trier.de/db/conf/sab/sab2008.html#BuckleyFBP08",
      "https://rd.springer.com/chapter/10.1007/978-3-540-69134-1_11",
      "http://link.springer.com/10.1007/978-3-540-69134-1_11",
      "http://users.sussex.ac.uk/~ezequiel/MonostableSAB08.pdf",
      "http://research-information.bristol.ac.uk/en/publications/monostable-controllers-for-adaptive-behavior(50dce952-ffbe-4b66-89ce-2167abebd7e9)/export.html",
      "https://dl.acm.org/citation.cfm?id=1424333.1424347",
      "http://eprints.soton.ac.uk/266775/1/BuckleyFineBullockDiPaolo2008.pdf",
      "http://dx.doi.org/10.1007/978-3-540-69134-1_11"
    ],
    "cso_semantic_topics": [
      "neural networks",
      "learning",
      "machine learning",
      "recurrent neural networks",
      "feedforward neural networks"
    ],
    "id": 2011486243,
    "cso_enhanced_topics": [
      "machine learning",
      "feedforward neural networks",
      "learning",
      "recurrent neural networks",
      "neural networks",
      "artificial intelligence",
      "education",
      "computer science"
    ],
    "doi": "10.1007/978-3-540-69134-1_11",
    "authors": [
      {
        "country": "United Kingdom",
        "affiliation": "University of Sussex",
        "name": "peter fine",
        "id": 2106795268,
        "gridid": "grid.12082.39",
        "order": 2
      },
      {
        "country": "United Kingdom",
        "affiliation": "University of Southampton",
        "name": "seth bullock",
        "id": 2284178237,
        "gridid": "grid.5491.9",
        "order": 3
      },
      {
        "country": "United Kingdom",
        "affiliation": "University of Sussex",
        "name": "ezequiel a di paolo",
        "id": 1832451835,
        "gridid": "grid.12082.39",
        "order": 4
      },
      {
        "country": "United Kingdom",
        "affiliation": "University of Southampton",
        "name": "christopher l buckley",
        "id": 2432925786,
        "gridid": "grid.5491.9",
        "order": 1
      }
    ],
    "types": {
      "Education": 100.0
    },
    "countries": {
      "United Kingdom": 100.0
    }
  },
  {
    "citationcount": 4,
    "confname": "ISNN 2012",
    "cso_annotated": true,
    "references": [
      2154642048,
      1966233349,
      1509884358,
      1929873255,
      1546359867,
      1978240667,
      1551987893,
      2078579128,
      2163474322,
      2125479168,
      149725197,
      24402856,
      2098239572,
      2154318594,
      102055947,
      1578460389,
      2159727905,
      2766736793,
      1545139845,
      2117431327,
      2110119381,
      1959983357
    ],
    "year": "2012-01-01",
    "topics": [
      "instance based learning",
      "semi supervised learning",
      "machine learning",
      "competitive learning",
      "artificial intelligence",
      "stability",
      "active learning",
      "computer science",
      "leabra",
      "online machine learning",
      "unsupervised learning",
      "pattern recognition"
    ],
    "papertitle": "multi instance learning using recurrent neural networks",
    "confseries": "ISNN",
    "abstract": "Multiple instance learning is an increasingly important area in machine learning. In multi-instance learning, the training set is structured into subsets (or bags) of instances. The bags are labelled, but the label of each instance is unknown or irrelevant. In this paper, we revisit the connectionist approach to multi-instance learning. We propose a recurrent neural network model for multi-instance learning. We have applied the new model to a benchmark multi-instance dataset. The results provide evidence that connectionist multi-instance learning is more promising than previously anticipated. We argue that a principled connectionist approach should provide robust and efficient multi-instance learning, yet comparative results should be taken with caution as a result of varying methodologies.",
    "confplace": "http://isnn.mae.cuhk.edu.hk/",
    "cso_syntactic_topics": [
      "recurrent neural networks",
      "machine learning",
      "neural networks",
      "learning"
    ],
    "urls": [
      "http://yadda.icm.edu.pl/yadda/element/bwmeta1.element.ieee-000006252784",
      "http://dblp.uni-trier.de/db/conf/ijcnn/ijcnn2012.html#GarcezZ12",
      "http://ieeexplore.ieee.org/document/6252784/"
    ],
    "cso_semantic_topics": [
      "recurrent neural networks",
      "neural networks",
      "learning",
      "machine learning",
      "feedforward neural networks"
    ],
    "id": 1965380665,
    "cso_enhanced_topics": [
      "machine learning",
      "feedforward neural networks",
      "learning",
      "recurrent neural networks",
      "neural networks",
      "artificial intelligence",
      "education",
      "computer science"
    ],
    "doi": "10.1109/IJCNN.2012.6252784",
    "authors": [
      {
        "country": "United Kingdom",
        "affiliation": "\"City",
        "name": "a s davila garcez",
        "id": 1943635846,
        "gridid": "grid.28577.3f",
        "order": 1
      },
      {
        "country": "Brazil",
        "affiliation": "Federal University of Rio de Janeiro",
        "name": "gerson zaverucha",
        "id": 1818462366,
        "gridid": "grid.8536.8",
        "order": 2
      }
    ],
    "types": {
      "Education": 100.0
    },
    "countries": {
      "Brazil": 50.0,
      "United Kingdom": 50.0
    }
  },
  {
    "citationcount": 3,
    "confname": "ICNC 2014",
    "references": [
      156216447,
      809236944,
      2037883917,
      2114001875,
      2046713381,
      1996730695,
      2050419479
    ],
    "year": "2014-01-01",
    "topics": [
      "consumer price index",
      "recurrent neural network",
      "machine learning",
      "simulation",
      "computer science",
      "artificial intelligence",
      "recreation"
    ],
    "papertitle": "the application of elman recurrent neural network model for forecasting consumer price index of education recreation and sports in yogyakarta",
    "confseries": "ICNC",
    "confplace": "http://icnc-fskd.xmu.edu.cn",
    "cso_syntactic_topics": [
      "recurrent neural networks",
      "education",
      "neural networks"
    ],
    "urls": [
      "http://dblp.uni-trier.de/db/conf/icnc/icnc2014.html#WutsqaKS14",
      "http://ieeexplore.ieee.org/document/6975833/"
    ],
    "id": 1994729888,
    "doi": "10.1109/ICNC.2014.6975833",
    "authors": [
      {
        "country": "Indonesia",
        "affiliation": "Yogyakarta State University",
        "name": "retno subekti",
        "id": 2111587692,
        "gridid": "grid.444659.e",
        "order": 3
      },
      {
        "country": "Indonesia",
        "affiliation": "Yogyakarta State University",
        "name": "rosita kusumawati",
        "id": 2141611858,
        "gridid": "grid.444659.e",
        "order": 2
      },
      {
        "country": "Indonesia",
        "affiliation": "Yogyakarta State University",
        "name": "dhoriva urwatul wutsqa",
        "id": 2124523950,
        "gridid": "grid.444659.e",
        "order": 1
      }
    ],
    "cso_annotated": true,
    "cso_semantic_topics": [
      "recurrent neural networks",
      "neural networks",
      "education",
      "feedforward neural networks",
      "backpropagation algorithm"
    ],
    "cso_enhanced_topics": [
      "neural networks",
      "feedforward neural networks",
      "backpropagation algorithm",
      "education",
      "recurrent neural networks",
      "machine learning",
      "artificial intelligence",
      "computer science"
    ],
    "types": {
      "Education": 100.0
    },
    "countries": {
      "Indonesia": 100.0
    }
  },
  {
    "citationcount": 9,
    "confname": "ICMLC 2008",
    "cso_annotated": true,
    "references": [
      1545318875,
      1996705509,
      2163760546,
      2028190538,
      2130317597,
      2133702739,
      2024069345,
      2133253631,
      2146341299,
      2165552175,
      2014530379,
      1578671836,
      1974210850,
      2053498134,
      2103692678,
      2099636542,
      1484735710,
      2618948514
    ],
    "year": "2008-01-01",
    "topics": [
      "robustness",
      "recurrent neural network",
      "machine learning",
      "algebraic equation",
      "artificial intelligence",
      "computer science",
      "artificial neural network",
      "time complexity",
      "modeling and simulation",
      "linear equation",
      "matlab"
    ],
    "papertitle": "modeling and simulation of zhang neural network for online linear time varying equations solving based on matlab simulink",
    "confseries": "ICMLC",
    "abstract": "A general recurrent neural network (RNN) with implicit dynamics has been proposed by Zhang et al for online time-varying algebraic equations solving; namely Zhang neural network (ZNN). In this type of network systems, neural dynamics are elegantly introduced by defining a matrix-valued error-monitoring function rather than the usual norm-based scalar-valued error funtion. This makes the computational error decrease to zero globally and exponentially. This paper investigates the modeling and simulation of ZNN using MATLAB Simulink and presents its convergence and robustness performance. MATLAB Simulink modeling results substantiate that this neural network is efficient for solving online linear time-varying equations.",
    "confplace": "http://www.icmlc.com/",
    "cso_syntactic_topics": [
      "recurrent neural networks",
      "simulink",
      "neural networks",
      "matlab"
    ],
    "urls": [
      "http://ieeexplore.ieee.org/xpl/abstractKeywords.jsp?reload=true&arnumber=4620514",
      "http://yadda.icm.edu.pl/yadda/element/bwmeta1.element.ieee-000004620514"
    ],
    "cso_semantic_topics": [
      "neural networks",
      "matlab",
      "simulink",
      "recurrent neural networks",
      "feedforward neural networks"
    ],
    "id": 1987021981,
    "cso_enhanced_topics": [
      "matlab",
      "feedforward neural networks",
      "simulink",
      "recurrent neural networks",
      "neural networks",
      "software",
      "machine learning",
      "computer science",
      "artificial intelligence"
    ],
    "doi": "10.1109/ICMLC.2008.4620514",
    "authors": [
      {
        "country": "China",
        "affiliation": "Sun Yat-sen University",
        "name": "yunong zhang",
        "id": 2138676690,
        "gridid": "grid.12981.33",
        "order": 1
      },
      {
        "country": "China",
        "affiliation": "Sun Yat-sen University",
        "name": "xiaojiao guo",
        "id": 2641795920,
        "gridid": "grid.12981.33",
        "order": 2
      },
      {
        "country": "China",
        "affiliation": "Sun Yat-sen University",
        "name": "weimu ma",
        "id": 2672134848,
        "gridid": "grid.12981.33",
        "order": 3
      }
    ],
    "types": {
      "Education": 100.0
    },
    "countries": {
      "China": 100.0
    }
  },
  {
    "citationcount": 2,
    "references": [
      2051521886,
      2070775210,
      2048433757,
      1988751333,
      2099498449,
      2154410492,
      2526086463,
      1596888119,
      2549499959,
      2158831443,
      2138594241,
      1994298651,
      2138244240
    ],
    "year": "2016-01-01",
    "topics": [
      "convergence",
      "robustness",
      "error function",
      "machine learning",
      "recurrent neural network",
      "computer science",
      "inverse problem",
      "artificial intelligence",
      "artificial neural network",
      "matlab",
      "matrix"
    ],
    "papertitle": "matlab simulink of varying parameter convergent differential neural network for solving online time varying matrix inverse",
    "confseries": "ISCID",
    "abstract": "To deal with time-varying equations, a novel recurrent neural network, named varying-parameter convergentdifferential neural network (in short, VP-CDNN), is proposed, modeled and analyzed. It is designed by a matrix-valued error function and the design parameter is time-varying, which enables the VP-CDNN to have good convergence and robustness. For illustration and comparison, a scalar-valued error function-based recurrent neural network, i.e., gradient-based neural network (GNN), is presented and developed. Matlab Simulink of both the VP-CDNN and GNN for solving online time-varying matrix inverse is constructed and presented. Comparison results verify that the proposed VP-CDNN is more effective and robust than those of GNN.",
    "cso_syntactic_topics": [
      "recurrent neural networks",
      "matlab",
      "simulink",
      "neural networks"
    ],
    "urls": [
      "http://ieeexplore.ieee.org/document/7830354/"
    ],
    "id": 2581012358,
    "doi": "10.1109/ISCID.2016.1080",
    "authors": [
      {
        "country": "China",
        "affiliation": "South China University of Technology",
        "name": "zhijun zhang",
        "id": 2751071835,
        "gridid": "grid.79703.3a",
        "order": 1
      },
      {
        "name": "jiayu zhang",
        "id": 2583052541,
        "order": 4
      },
      {
        "name": "siyuan chen",
        "id": 2580635681,
        "order": 2
      },
      {
        "name": "lunan zheng",
        "id": 2582943391,
        "order": 3
      }
    ],
    "cso_annotated": true,
    "cso_semantic_topics": [
      "matlab",
      "simulink",
      "neural networks",
      "recurrent neural networks",
      "feedforward neural networks"
    ],
    "cso_enhanced_topics": [
      "recurrent neural networks",
      "feedforward neural networks",
      "matlab",
      "simulink",
      "neural networks",
      "software",
      "machine learning",
      "computer science",
      "artificial intelligence"
    ],
    "types": {
      "Education": 100.0
    },
    "countries": {
      "China": 100.0
    }
  },
  {
    "citationcount": 4,
    "confname": "CCDC 2011",
    "cso_annotated": true,
    "references": [
      2126737450,
      2036202071,
      2147233263,
      2061152874,
      2111659384,
      2028362299,
      2152083412,
      2158442843,
      1217151387,
      2128159432,
      2148872333,
      2176964858,
      84467594,
      152227950,
      2118706537,
      2041645455,
      2162505666,
      2049751389,
      2158128040,
      2150354929,
      2111935653
    ],
    "year": "2011-01-01",
    "topics": [
      "control engineering",
      "echo state network",
      "recurrent neural network",
      "machine learning",
      "electrical load",
      "computer science",
      "artificial intelligence",
      "linear regression",
      "artificial neural network",
      "algorithm",
      "seasonality",
      "feedforward neural network"
    ],
    "papertitle": "hourly electric load forecasting algorithm based on echo state neural network",
    "confseries": "CCDC",
    "abstract": "An algorithm for hourly electric load forecasting based on echo state neural networks (ESN) is proposed in this paper. ESN is a new paradigm for using recurrent neural networks (RNNs) with a simpler training method. While the prediction, load patterns are treated as time series signals; no further information is used than the past load data records, such as weather, seasonal variations. The relation between key parameter of the ESN and the predicting performance is discussed; ESN and feedforward neural network (FNN) are compared with the same task also. Simulation experiment results demonstrate that the proposed ESN algorithm is valid and can obtain more accurate predicting results than the FNN for the short-term load prediction problem.",
    "confplace": "",
    "cso_syntactic_topics": [
      "recurrent neural networks",
      "neural networks",
      "feedforward neural networks"
    ],
    "urls": [
      "http://yadda.icm.edu.pl/yadda/element/bwmeta1.element.ieee-000005968901",
      "http://ieeexplore.ieee.org/xpl/articleDetails.jsp?arnumber=5968901&contentType=Conference+Publications",
      "http://ieeexplore.ieee.org/iel5/5946174/5968129/05968901.pdf?arnumber=5968901"
    ],
    "cso_semantic_topics": [
      "neural networks",
      "recurrent neural networks",
      "network architecture",
      "feedforward neural networks",
      "fuzzy neural networks"
    ],
    "id": 2107318905,
    "cso_enhanced_topics": [
      "neural networks",
      "fuzzy neural networks",
      "feedforward neural networks",
      "recurrent neural networks",
      "network architecture",
      "machine learning",
      "fuzzy control",
      "network protocols",
      "artificial intelligence",
      "fuzzy sets",
      "internet",
      "computer network",
      "computer science",
      "mathematics"
    ],
    "doi": "10.1109/CCDC.2011.5968901",
    "authors": [
      {
        "name": "baohua song",
        "id": 2646450324,
        "order": 5
      },
      {
        "country": "China",
        "affiliation": "Chang'an University",
        "name": "xiangmo zhao",
        "id": 2630077680,
        "gridid": "grid.440661.1",
        "order": 2
      },
      {
        "country": "China",
        "affiliation": "Xi'an Jiaotong University",
        "name": "qingsong song",
        "id": 2762133812,
        "gridid": "grid.43169.39",
        "order": 1
      },
      {
        "country": "China",
        "affiliation": "Xi'an Jiaotong University",
        "name": "zuren feng",
        "id": 2146594527,
        "gridid": "grid.43169.39",
        "order": 3
      },
      {
        "country": "China",
        "affiliation": "Xi'an Jiaotong University",
        "name": "yisheng an",
        "id": 2701506669,
        "gridid": "grid.43169.39",
        "order": 4
      }
    ],
    "types": {
      "Education": 100.0
    },
    "countries": {
      "China": 100.0
    }
  },
  {
    "id": 1699610106,
    "doi": "10.1109/WCICA.2000.859938",
    "papertitle": "the application of neural network and evolutionary algorithm in mechanical optimal design",
    "year": "2000-01-01",
    "citationcount": 0,
    "confseries": "WCICA",
    "confname": "WCICA 2000",
    "confplace": "",
    "topics": [
      "evolutionary computation",
      "evolutionary algorithm",
      "probabilistic neural network",
      "recurrent neural network",
      "machine learning",
      "backpropagation",
      "computer science",
      "artificial intelligence",
      "artificial neural network",
      "algorithm design",
      "evolutionary acquisition of neural topologies"
    ],
    "urls": [
      "http://ieeexplore.ieee.org/xpl/freeabs_all.jsp?isnumber=18649&arnumber=859938&count=175&index=34"
    ],
    "authors": [
      {
        "order": 1,
        "id": 2680012206,
        "name": "chen ke",
        "gridid": "grid.256896.6",
        "affiliation": "Hefei University of Technology",
        "country": "China"
      },
      {
        "order": 3,
        "id": 2654282400,
        "name": "ke zunzhong"
      },
      {
        "order": 2,
        "id": 2710009074,
        "name": "zhao han"
      }
    ],
    "abstract": "Discusses the application of several neural network models and evolutionary algorithm in mechanical optimal design. A time-varying recurrent neural network model, Hopfield model, BP model, Boltzmann model, Gauss model, evolution neural network model and evolutionary algorithm and their applications in mechanical optimal design are discussed also.",
    "cso_syntactic_topics": [
      "neural networks",
      "optimal design",
      "evolutionary algorithms",
      "bp model",
      "recurrent neural networks"
    ],
    "cso_annotated": true,
    "cso_semantic_topics": [
      "neural networks",
      "evolutionary algorithms",
      "optimal design",
      "recurrent neural networks",
      "feedforward neural networks"
    ],
    "cso_enhanced_topics": [
      "neural networks",
      "optimal design",
      "evolutionary algorithms",
      "feedforward neural networks",
      "bp model",
      "recurrent neural networks",
      "machine learning",
      "optimal solutions",
      "genetic algorithms",
      "bp neural networks",
      "artificial intelligence",
      "computer systems",
      "backpropagation algorithm",
      "computer science"
    ],
    "types": {
      "Education": 100.0
    },
    "countries": {
      "China": 100.0
    }
  },
  {
    "citationcount": 4,
    "confname": "WCICA 2016",
    "references": [
      1996705509,
      2028190538,
      1831959524,
      2024069345,
      2133253631,
      1825077972,
      2146341299,
      2164342016,
      2104689584,
      2061715187,
      2005104409,
      1484735710,
      1202743199,
      2138244240
    ],
    "year": "2016-01-01",
    "topics": [
      "convergence",
      "robustness",
      "recurrent neural network",
      "machine learning",
      "computer science",
      "artificial intelligence",
      "artificial neural network",
      "time complexity",
      "control theory",
      "feedforward neural network",
      "matlab"
    ],
    "papertitle": "simulink comparison of varying parameter convergent differential neural network and gradient neural network for solving online linear time varying equations",
    "confseries": "WCICA",
    "abstract": "A novel kind of recurrent neural network (called varying-parameter convergent-differential neural-network, VP-CDNN) is proposed in this paper for online solving linear time-varying equations. Different from traditional gradient-base neural network (called GNN) with scalar-valued error functions, such new VP-CDNN is designed based on matrix-valued or vector-valued error functions and their coefficients related to convergence is time-varying. In other words, the coefficients are the functions of time t. In addition, this kind of VP-CDNN is depicted in implicit dynamics but not explicit dynamics. To illustrate the effectiveness of the new neural network, the comparative simulations with MATLAB Simulink of the proposed VP-CDNN and GNN for solving online linear time-varying equations are implemented and presented. Computer-simulation results verify the fast convergence and good robustness.",
    "confplace": "",
    "cso_syntactic_topics": [
      "recurrent neural networks",
      "matlab",
      "simulink",
      "neural networks"
    ],
    "urls": [
      "http://ieeexplore.ieee.org/document/7578412/"
    ],
    "id": 2526086463,
    "doi": "10.1109/WCICA.2016.7578412",
    "authors": [
      {
        "country": "China",
        "affiliation": "South China University of Technology",
        "name": "siwei li",
        "id": 2525588744,
        "gridid": "grid.79703.3a",
        "order": 2
      },
      {
        "country": "China",
        "affiliation": "South China University of Technology",
        "name": "zhijun zhang",
        "id": 2681551831,
        "gridid": "grid.79703.3a",
        "order": 1
      },
      {
        "country": "China",
        "affiliation": "Shenzhen University",
        "name": "xiaoyan zhang",
        "id": 2728080018,
        "gridid": "grid.263488.3",
        "order": 3
      }
    ],
    "cso_annotated": true,
    "cso_semantic_topics": [
      "neural networks",
      "recurrent neural networks",
      "matlab",
      "simulink",
      "feedforward neural networks"
    ],
    "cso_enhanced_topics": [
      "recurrent neural networks",
      "feedforward neural networks",
      "matlab",
      "simulink",
      "neural networks",
      "software",
      "machine learning",
      "computer science",
      "artificial intelligence"
    ],
    "types": {
      "Education": 100.0
    },
    "countries": {
      "China": 100.0
    }
  },
  {
    "citationcount": 11,
    "cso_annotated": true,
    "references": [
      2025029262,
      2113442785,
      2110485445,
      2139278315,
      2124290836,
      1595984611,
      2037036466,
      2138200019,
      2276509751,
      2066269994,
      2011080520,
      2087070363,
      2590440575,
      1988928075,
      2158081646,
      2157570937,
      2254682391,
      1969717963,
      2103496339,
      1983871652,
      1979962271,
      2040135606,
      1488066048,
      2290219471,
      2123618761,
      2078178782,
      2106888438,
      2166750272,
      2142621683,
      2070347025,
      2063554202,
      25172383,
      2142268639
    ],
    "year": "2009-01-01",
    "topics": [
      "sigmoid function",
      "control engineering",
      "backpropagation",
      "machine learning",
      "recurrent neural network",
      "activation function",
      "hysteresis",
      "computer science",
      "artificial neural network",
      "artificial intelligence",
      "small number"
    ],
    "papertitle": "hysteretic recurrent neural networks a tool for modeling hysteretic materials and systems",
    "abstract": "This paper introduces a novel recurrent neural network, the hysteretic recurrent neural network (HRNN), that is ideally suited to modeling hysteretic materials and systems. This network incorporates a hysteretic neuron consisting of conjoined sigmoid activation functions. Although similar hysteretic neurons have been explored previously, the HRNN is unique in its utilization of simple recurrence to 'self-select' relevant activation functions. Furthermore, training is facilitated by placing the network weights on the output side, allowing standard backpropagation of error training algorithms to be used. We present two- and three-phase versions of the HRNN for modeling hysteretic materials with distinct phases. These models are experimentally validated using data collected from shape memory alloys and ferromagnetic materials. The results demonstrate the HRNN's ability to accurately generalize hysteretic behavior with a relatively small number of neurons. Additional benefits lie in the network's ability to identify statistical information concerning the macroscopic material by analyzing the weights of the individual neurons.",
    "cso_syntactic_topics": [
      "recurrent neural networks",
      "training algorithms",
      "backpropagation algorithm"
    ],
    "urls": [
      "http://adsabs.harvard.edu/abs/2009SMaS...18g5004V",
      "http://iopscience.iop.org/article/10.1088/0964-1726/18/7/075004/pdf",
      "http://iopscience.iop.org/0964-1726/18/7/075004",
      "http://iopscience.iop.org/article/10.1088/0964-1726/18/7/075004",
      "http://stacks.iop.org/0964-1726/18/i=7/a=075004?key=crossref.071307103be9898a93df946bef481fe2"
    ],
    "cso_semantic_topics": [
      "recurrent neural networks",
      "neural networks",
      "feedforward neural networks",
      "backpropagation algorithm",
      "training algorithms"
    ],
    "id": 2086778947,
    "journame": "smart materials and structures",
    "cso_enhanced_topics": [
      "training algorithms",
      "feedforward neural networks",
      "backpropagation algorithm",
      "recurrent neural networks",
      "neural networks",
      "machine learning",
      "artificial intelligence",
      "computer science"
    ],
    "doi": "10.1088/0964-1726/18/7/075004",
    "authors": [
      {
        "country": "United States",
        "affiliation": "North Carolina State University",
        "name": "arun s veeramani",
        "id": 1969413351,
        "gridid": "grid.40803.3f",
        "order": 1
      },
      {
        "country": "United States",
        "affiliation": "North Carolina State University",
        "name": "john h crews",
        "id": 2122305209,
        "gridid": "grid.40803.3f",
        "order": 2
      },
      {
        "name": "gregory d buckner",
        "id": 1988766504,
        "order": 3
      }
    ],
    "types": {
      "Education": 100.0
    },
    "countries": {
      "United States": 100.0
    }
  },
  {
    "citationcount": 2,
    "references": [
      1570106308,
      2165698076,
      196214544,
      333423983,
      22861983,
      2616180702,
      2115096495,
      849636350,
      1408639475,
      2133013156,
      2006278461,
      71081281,
      1614862348,
      2046549588
    ],
    "year": "2015-01-01",
    "topics": [
      "recurrent neural network",
      "machine learning",
      "tensor",
      "artificial intelligence",
      "time delay neural network",
      "computer science",
      "system identification",
      "dynamical system",
      "multi task learning",
      "mathematical problem",
      "use case",
      "pattern recognition"
    ],
    "papertitle": "exploiting similarity in system identification tasks with recurrent neural networks",
    "abstract": "Abstract   A novel dual-task learning approach based on recurrent neural networks with factored tensor components for system identification tasks is presented. The goal is to identify the dynamics of a system given few observations which are augmented by auxiliary data from a similar system. The problem is motivated by real-world use cases and a mathematical problem description is given. Further, our proposed model\u2014the factored tensor recurrent neural network (FTRNN)\u2014and two alternative models are introduced which are benchmarked on the cart-pole and mountain car simulations. We show that the FTRNN consistently and significantly outperformed the competing models in accuracy and data-efficiency.",
    "cso_syntactic_topics": [
      "recurrent neural networks",
      "learning",
      "component"
    ],
    "urls": [
      "https://www.elen.ucl.ac.be/Proceedings/esann/esannpdf/es2014-162.pdf",
      "https://www.sciencedirect.com/science/article/pii/S0925231215003586"
    ],
    "id": 2038659430,
    "journame": "neurocomputing",
    "doi": "10.1016/j.neucom.2014.11.074",
    "authors": [
      {
        "name": "sigurd spieckermann",
        "id": 2071945049,
        "order": 1
      },
      {
        "country": "Germany",
        "affiliation": "Siemens (Germany)",
        "name": "thomas a runkler",
        "id": 56145505,
        "gridid": "grid.5406.7",
        "order": 5
      },
      {
        "country": "Germany",
        "affiliation": "Siemens (Germany)",
        "name": "steffen udluft",
        "id": 1370556405,
        "gridid": "grid.5406.7",
        "order": 3
      },
      {
        "country": "Germany",
        "affiliation": "Technical University of Berlin",
        "name": "siegmund dull",
        "id": 2012180119,
        "gridid": "grid.6734.6",
        "order": 2
      },
      {
        "country": "Germany",
        "affiliation": "Siemens (Germany)",
        "name": "sigurd spieckermann",
        "id": 2071945049,
        "gridid": "grid.5406.7",
        "order": 1
      },
      {
        "name": "thomas a runkler",
        "id": 56145505,
        "order": 5
      },
      {
        "country": "Germany",
        "affiliation": "Siemens (Germany)",
        "name": "siegmund dull",
        "id": 2012180119,
        "gridid": "grid.5406.7",
        "order": 2
      },
      {
        "country": "Germany",
        "affiliation": "Siemens (Germany)",
        "name": "alexander hentschel",
        "id": 2041697404,
        "gridid": "grid.5406.7",
        "order": 4
      }
    ],
    "cso_annotated": true,
    "cso_semantic_topics": [
      "recurrent neural networks",
      "neural networks",
      "learning",
      "component",
      "feedforward neural networks"
    ],
    "cso_enhanced_topics": [
      "recurrent neural networks",
      "feedforward neural networks",
      "component",
      "learning",
      "neural networks",
      "software",
      "education",
      "machine learning",
      "computer science",
      "artificial intelligence"
    ],
    "types": {
      "Company": 83.33333333333334,
      "Education": 16.666666666666668
    },
    "countries": {
      "Germany": 100.00000000000001
    },
    "type_Dbpedia": [
      "telecommunications",
      "computing and it"
    ]
  },
  {
    "citationcount": 0,
    "cso_annotated": true,
    "references": [
      2001082470,
      196214544,
      1880262756,
      2101105183,
      2161353674,
      2549476280,
      1924770834,
      197120736,
      2064675550
    ],
    "year": "2018-01-01",
    "topics": [
      "recurrent neural network",
      "computer science",
      "artificial intelligence",
      "latent dirichlet allocation",
      "topic model",
      "mathematical optimization",
      "tanka",
      "pattern recognition",
      "composition"
    ],
    "papertitle": "lda based scoring of sequences generated by rnn for automatic tanka composition",
    "confseries": "ICCS",
    "abstract": "This paper proposes a method of scoring sequences generated by recurrent neural network (RNN) for automatic Tanka composition. Our method gives sequences a score based on topic assignments provided by latent Dirichlet allocation (LDA). When many word tokens in a sequence are assigned to the same topic, we give the sequence a high score. While a scoring of sequences can also be achieved by using RNN output probabilities, the sequences having large probabilities are likely to share much the same subsequences and thus are doomed to be deprived of diversity. The experimental results, where we scored Japanese Tanka poems generated by RNN, show that the top-ranked sequences selected by our method were likely to contain a wider variety of subsequences than those selected by RNN output probabilities.",
    "cso_syntactic_topics": [
      "recurrent neural networks"
    ],
    "urls": [
      "https://link.springer.com/content/pdf/10.1007%2F978-3-319-93713-7_33.pdf",
      "https://link.springer.com/chapter/10.1007/978-3-319-93713-7_33"
    ],
    "cso_semantic_topics": [
      "recurrent neural networks",
      "neural networks",
      "probability distributions",
      "feedforward neural networks",
      "probability"
    ],
    "id": 2808125017,
    "cso_enhanced_topics": [
      "probability distributions",
      "feedforward neural networks",
      "recurrent neural networks",
      "probability",
      "neural networks",
      "mathematics",
      "machine learning",
      "artificial intelligence",
      "computer science"
    ],
    "doi": "10.1007/978-3-319-93713-7_33",
    "authors": [
      {
        "country": "Japan",
        "affiliation": "National Institute of Informatics",
        "name": "atsuhiro takasu",
        "id": 601099622,
        "gridid": "grid.250343.3",
        "order": 2
      },
      {
        "country": "Japan",
        "affiliation": "Nagasaki University",
        "name": "tomonari masada",
        "id": 2094442036,
        "gridid": "grid.174567.6",
        "order": 1
      }
    ],
    "types": {
      "Education": 50.0,
      "Facility": 50.0
    },
    "countries": {
      "Japan": 100.0
    }
  },
  {
    "id": 1998810077,
    "doi": "10.1007/s12553-013-0069-0",
    "papertitle": "identification of tumor immune system via recurrent neural network",
    "year": "2014-01-01",
    "citationcount": 0,
    "journame": "health technology",
    "topics": [
      "backpropagation",
      "machine learning",
      "correctness",
      "recurrent neural network",
      "artificial intelligence",
      "time delay neural network",
      "artificial neural network",
      "immune system",
      "complex systems",
      "computer science",
      "multilayer perceptron"
    ],
    "references": [
      2081444498,
      2138484437,
      1977466091,
      651238688,
      2053398543,
      1977489896,
      2123716044,
      2136725755,
      1594358512,
      2160238841,
      2060790641,
      2018117532,
      2101764833,
      1588537248,
      2147342239,
      2169169493
    ],
    "urls": [
      "https://link.springer.com/article/10.1007%2Fs12553-013-0069-0",
      "https://rd.springer.com/content/pdf/10.1007%2Fs12553-013-0069-0.pdf",
      "https://link.springer.com/content/pdf/10.1007%2Fs12553-013-0069-0.pdf"
    ],
    "authors": [
      {
        "country": "Iran",
        "affiliation": "\"Islamic Azad University",
        "name": "sara haghighatnia",
        "id": 2495564578,
        "gridid": "grid.411463.5",
        "order": 2
      },
      {
        "country": "Iran",
        "affiliation": "\"Islamic Azad University",
        "name": "arash pourhashemi",
        "id": 2493793633,
        "gridid": "grid.411463.5",
        "order": 1
      },
      {
        "country": "Iran",
        "affiliation": "\"Islamic Azad University",
        "name": "reihaneh kardehi moghaddam",
        "id": 2318865253,
        "gridid": "grid.411463.5",
        "order": 3
      }
    ],
    "abstract": "Cancer immunotherapy is an emerging therapy for cancer disease treatment which stimulates immune systems to fight against tumor cells. In this paper, a back propagation neural network with some feedbacks from hidden layer is used as a method of identification for one validated mathematical model. Since it is not possible to model complex system due to void of information and knowledge to model all complexity of complex system, identification methods are effective tools for modeling ill-defined system. Afterward, it is possible to perform control methods on the estimated model to reach the clinical goals. The simulation results have shown the correctness of the identification process.",
    "cso_syntactic_topics": [
      "neural networks",
      "backpropagation algorithm",
      "recurrent neural networks",
      "hidden layers"
    ],
    "cso_annotated": true,
    "cso_semantic_topics": [
      "recurrent neural networks",
      "neural networks",
      "backpropagation algorithm",
      "hidden layers",
      "feedforward neural networks"
    ],
    "cso_enhanced_topics": [
      "neural networks",
      "hidden layers",
      "feedforward neural networks",
      "backpropagation algorithm",
      "recurrent neural networks",
      "machine learning",
      "artificial intelligence",
      "computer science"
    ],
    "types": {
      "Education": 100.0
    },
    "countries": {
      "Iran": 100.0
    }
  },
  {
    "citationcount": 1,
    "cso_annotated": true,
    "references": [
      1757980361,
      2135822449,
      2008633810,
      1554663460,
      2052250761
    ],
    "year": "2018-01-01",
    "topics": [
      "backpropagation",
      "machine learning",
      "computer science",
      "artificial intelligence",
      "artificial neural network",
      "perceptron",
      "multilayer perceptron"
    ],
    "papertitle": "multilayer perceptron mlp",
    "abstract": "Artificial Neural networks have been found to be outstanding tools able to generate generalizable models in many disciplines. In this technical note, we present the multi-layer perceptron (MLP) which is the most common neural network.",
    "cso_syntactic_topics": [
      "neural networks",
      "multilayer perceptrons"
    ],
    "urls": [
      "https://link.springer.com/content/pdf/10.1007%2F978-3-319-60801-3_27.pdf",
      "https://link.springer.com/chapter/10.1007%2F978-3-319-60801-3_27"
    ],
    "cso_semantic_topics": [
      "multilayer perceptrons",
      "neural networks",
      "feedforward neural networks",
      "backpropagation algorithm",
      "mlp neural networks"
    ],
    "id": 2766585573,
    "cso_enhanced_topics": [
      "feedforward neural networks",
      "backpropagation algorithm",
      "mlp neural networks",
      "neural networks",
      "multilayer perceptrons",
      "machine learning",
      "artificial intelligence",
      "computer science"
    ],
    "doi": "10.1007/978-3-319-60801-3_27",
    "authors": [
      {
        "country": "Mexico",
        "affiliation": "National Autonomous University of Mexico",
        "name": "j f mas",
        "id": 2765150085,
        "gridid": "grid.9486.3",
        "order": 2
      },
      {
        "country": "Mexico",
        "affiliation": "Instituto Polit\u00e9cnico Nacional",
        "name": "h taud",
        "id": 2765705117,
        "gridid": "grid.418275.d",
        "order": 1
      }
    ],
    "types": {
      "Education": 100.0
    },
    "countries": {
      "Mexico": 100.0
    }
  },
  {
    "id": 1523676595,
    "doi": "10.1109/ISA.2011.5873452",
    "papertitle": "design and implementation of dynamic building and storage of bp neural network model",
    "year": "2011-01-01",
    "citationcount": 0,
    "confseries": "ISA",
    "topics": [
      "probabilistic neural network",
      "backpropagation",
      "machine learning",
      "computer science",
      "artificial intelligence",
      "time delay neural network",
      "artificial neural network",
      "object oriented modeling"
    ],
    "urls": [
      "http://ieeexplore.ieee.org/document/5873452/",
      "http://yadda.icm.edu.pl/yadda/element/bwmeta1.element.ieee-000005873452"
    ],
    "authors": [
      {
        "order": 1,
        "id": 2676183550,
        "name": "wei li",
        "gridid": "grid.9227.e",
        "affiliation": "Chinese Academy of Sciences",
        "country": "China"
      },
      {
        "order": 3,
        "id": 2423941954,
        "name": "yu yao",
        "gridid": "grid.9227.e",
        "affiliation": "Chinese Academy of Sciences",
        "country": "China"
      },
      {
        "order": 2,
        "id": 2142298166,
        "name": "yueqing wu",
        "gridid": "grid.9227.e",
        "affiliation": "Chinese Academy of Sciences",
        "country": "China"
      }
    ],
    "abstract": "BP neural network (back propagation neural network) is a mathematical model for machine learning. It has a strong advantage in terms of prediction of the future events, and taking into account the different applications, its impact factors are different, which makes the model complex and diverse. A general modeling approach is proposed, which creates and stores BP neural network model dynamically, and its principle is described, furthermore, a typical example (prediction of diseases and pests) verifies it.",
    "cso_syntactic_topics": [
      "bp neural networks",
      "neural networks",
      "machine learning",
      "backpropagation algorithm"
    ],
    "cso_annotated": true,
    "cso_semantic_topics": [
      "neural networks",
      "feedforward neural networks",
      "bp neural networks",
      "backpropagation algorithm",
      "learning",
      "machine learning"
    ],
    "cso_enhanced_topics": [
      "machine learning",
      "learning",
      "backpropagation algorithm",
      "feedforward neural networks",
      "bp neural networks",
      "neural networks",
      "artificial intelligence",
      "education",
      "computer science"
    ],
    "types": {
      "Government": 100.0
    },
    "countries": {
      "China": 100.0
    }
  },
  {
    "citationcount": 1,
    "confname": "ISNN 2011",
    "cso_annotated": true,
    "references": [
      2147134951,
      2099343990,
      2119083085,
      2109204689,
      2149594866,
      1963936052,
      1964850834,
      1825077972,
      2130943839,
      2143274752,
      1558978786,
      2149669704,
      2119702266,
      2168087266,
      2003052413,
      2094068261,
      1821237830,
      37474599,
      36550569,
      2141779161,
      2103071897,
      1997309861,
      2124776405,
      2160535738,
      2143555748,
      1610911073
    ],
    "year": "2011-01-01",
    "topics": [
      "water resource management",
      "water pollution",
      "water resources",
      "recurrent neural network",
      "machine learning",
      "computer science",
      "artificial intelligence",
      "stormwater",
      "combined sewer",
      "surface runoff",
      "pollution",
      "water quality"
    ],
    "papertitle": "urban stormwater runoff prediction using recurrent neural networks",
    "confseries": "ISNN",
    "abstract": "It has been recognized that urban stormwater pollution can be a large contributor to the water quality problems of many receiving waters. Stormwater pollution is one of most important issues the District of Columbia faces. The downtown core of the District is serviced by combined sewer system. Therefore, evaluations of stormwater runoff are necessary to enhance the performance of an assessment operation and develop better water resources management and plan. In order to accomplish the goal, a predictive model based on recurrent neural networks with the Levenberg-Marquardt backpropagation training algorithm is developed to forecast the stormwater runoff using the precipitation and the previous stormwater runoff. This computational modeling tool explored a new computational intelligence solution for monitoring and controlling urban water pollution in the District of Columbia. The experimental results show that Levenberg-Marquardt backpropagation training algorithm proved to be successful in training the recurrent neural network for the stormwater runoff prediction.",
    "confplace": "http://isnn2011.mae.cuhk.edu.hk/",
    "cso_syntactic_topics": [
      "recurrent neural networks",
      "training algorithms",
      "backpropagation algorithm"
    ],
    "urls": [
      "https://link.springer.com/chapter/10.1007/978-3-642-21105-8_71",
      "https://link.springer.com/content/pdf/10.1007%2F978-3-642-21105-8_71.pdf",
      "http://dblp.uni-trier.de/db/conf/isnn/isnn2011-1.html#Zhang11"
    ],
    "cso_semantic_topics": [
      "recurrent neural networks",
      "neural networks",
      "backpropagation algorithm",
      "training algorithms",
      "feedforward neural networks"
    ],
    "id": 1598410633,
    "cso_enhanced_topics": [
      "training algorithms",
      "feedforward neural networks",
      "backpropagation algorithm",
      "recurrent neural networks",
      "neural networks",
      "machine learning",
      "artificial intelligence",
      "computer science"
    ],
    "doi": "10.1007/978-3-642-21105-8_71",
    "authors": [
      {
        "country": "United States",
        "affiliation": "University of the District of Columbia",
        "name": "nian zhang",
        "id": 2642318496,
        "gridid": "grid.267550.3",
        "order": 1
      }
    ],
    "types": {
      "Education": 100.0
    },
    "countries": {
      "United States": 100.0
    }
  },
  {
    "id": 2360256355,
    "doi": "",
    "papertitle": "simultaneous quantitative analysis of three kinds of phenols by elman recurrent neural network",
    "year": "2006-01-01",
    "citationcount": 0,
    "journame": "spectroscopy and spectral analysis",
    "topics": [
      "bayesian multivariate linear regression",
      "standard error",
      "rate of convergence",
      "recurrent neural network",
      "machine learning",
      "computer science",
      "artificial intelligence",
      "quantitative analysis"
    ],
    "urls": [
      "http://www.ncbi.nlm.nih.gov/pubmed/16827358"
    ],
    "authors": [
      {
        "order": 3,
        "id": 2556009340,
        "name": "s x ren"
      },
      {
        "order": 1,
        "id": 2436478731,
        "name": "l gao",
        "gridid": "grid.411643.5",
        "affiliation": "Inner Mongolia University",
        "country": "China"
      },
      {
        "order": 2,
        "id": 2536692127,
        "name": "j x shi"
      }
    ],
    "abstract": "Elman recurrent neural network ( ERNN) was applied to study the simultaneous quantitative analysis of seriously overlapped spectra of a p-nitrophenol, o-nitrophenol and 2,4-dinitrophenol system. The multivariate linear regression (MLR) method was also applied in this study for comparison. Two programs (PERNN and PMLR) were designed to perform the calculations. By optimization, the structure and parameters of Elman recurrent neural network were defined. The relative standard errors of prediction (RSEP) for all components with ERNN and MLR were 3.1% and 2 027.3%, respectively. Experimental results showed the method to be successful even where there was a severe overlap of spectra. The ERNN method is a valuable tool in solving the minimum problem and improving the convergence rate, and can be used to analyze the whole spectra rather than just picking out a few characteristic values. The method provides a new way of simultaneous determination of severely overlapped molecular spectra without prior separation.",
    "cso_syntactic_topics": [
      "optimization",
      "component",
      "recurrent neural networks"
    ],
    "cso_annotated": true,
    "cso_semantic_topics": [
      "recurrent neural networks",
      "neural networks",
      "optimization",
      "component",
      "feedforward neural networks"
    ],
    "cso_enhanced_topics": [
      "optimization",
      "recurrent neural networks",
      "feedforward neural networks",
      "component",
      "neural networks",
      "mathematics",
      "software",
      "machine learning",
      "computer science",
      "artificial intelligence"
    ],
    "types": {
      "Education": 100.0
    },
    "countries": {
      "China": 100.0
    }
  },
  {
    "citationcount": 2,
    "references": [
      2072865791,
      2103452139,
      2110485445,
      2016589492,
      2110798204,
      2151597584,
      194249466,
      2017123832,
      2028592382,
      1592838517,
      1946475413,
      2153795254,
      2322032599,
      2104374672,
      2145371424,
      2134568112,
      2400616210,
      2166244938,
      2117499988,
      140219781,
      1562302237,
      2064675550,
      2136939460,
      1674799117,
      1217151387,
      1850152045,
      1899504021,
      2072128103,
      2115730999,
      2107878631,
      2051812123,
      2052853753,
      2099257174,
      2606251538,
      2080568378,
      1989137448,
      2150355110,
      2086449802
    ],
    "year": "2014-01-01",
    "topics": [
      "types of artificial neural networks",
      "vanishing gradient problem",
      "recurrent neural network",
      "machine learning",
      "competitive learning",
      "artificial intelligence",
      "time delay neural network",
      "artificial neural network",
      "computer science",
      "backpropagation through time",
      "pattern recognition",
      "deep learning"
    ],
    "papertitle": "learning long term dependencies in segmented memory recurrent neural networks with backpropagation of error",
    "abstract": "Abstract   In general, recurrent neural networks have difficulties in learning long-term dependencies. The segmented-memory recurrent neural network (SMRNN) architecture together with the extended real-time recurrent learning (eRTRL) algorithm was proposed to circumvent this problem. Due to its computational complexity eRTRL becomes impractical with increasing network size. Therefore, we introduce the less complex extended backpropagation through time (eBPTT) for SMRNN together with a layer-local unsupervised pre-training procedure. A comparison on the information latching problem showed that eRTRL is better able to handle the latching of information over longer periods of time, even though eBPTT guaranteed a better generalisation when training was successful. Further, pre-training significantly improved the ability to learn long-term dependencies with eBPTT. Therefore, the proposed eBPTT algorithm is suited for tasks that require big networks where eRTRL is impractical. The pre-training procedure itself is independent of the supervised learning algorithm and can improve learning in SMRNN in general.",
    "cso_syntactic_topics": [
      "recurrent neural networks",
      "learning",
      "backpropagation algorithm"
    ],
    "urls": [
      "http://dblp.uni-trier.de/db/journals/ijon/ijon141.html#GlugeBPW14",
      "https://www.sciencedirect.com/science/article/pii/S092523121400407X",
      "http://www.sciencedirect.com/science/article/pii/S092523121400407X"
    ],
    "id": 2124397266,
    "journame": "neurocomputing",
    "doi": "10.1016/j.neucom.2013.11.043",
    "authors": [
      {
        "country": "Germany",
        "affiliation": "Otto-von-Guericke University Magdeburg",
        "name": "ronald bock",
        "id": 2172102164,
        "gridid": "grid.5807.a",
        "order": 2
      },
      {
        "country": "Germany",
        "affiliation": "Otto-von-Guericke University Magdeburg",
        "name": "stefan gluge",
        "id": 1251879411,
        "gridid": "grid.5807.a",
        "order": 1
      },
      {
        "country": "Switzerland",
        "affiliation": "Zurich University of Applied Sciences",
        "name": "stefan gluge",
        "id": 1251879411,
        "gridid": "grid.19739.35",
        "order": 1
      },
      {
        "country": "Germany",
        "affiliation": "University of Ulm",
        "name": "gunther palm",
        "id": 2137766957,
        "gridid": "grid.6582.9",
        "order": 3
      },
      {
        "country": "Germany",
        "affiliation": "Otto-von-Guericke University Magdeburg",
        "name": "andreas wendemuth",
        "id": 2097507820,
        "gridid": "grid.5807.a",
        "order": 4
      }
    ],
    "cso_annotated": true,
    "cso_semantic_topics": [
      "recurrent neural networks",
      "neural networks",
      "backpropagation algorithm",
      "learning",
      "feedforward neural networks"
    ],
    "cso_enhanced_topics": [
      "recurrent neural networks",
      "feedforward neural networks",
      "backpropagation algorithm",
      "learning",
      "neural networks",
      "education",
      "machine learning",
      "artificial intelligence",
      "computer science"
    ],
    "types": {
      "Education": 100.0
    },
    "countries": {
      "Switzerland": 20.0,
      "Germany": 80.0
    }
  },
  {
    "citationcount": 2,
    "urls": [
      "http://www.ieeexplore.ieee.org/stamp/stamp.jsp?arnumber=00713858"
    ],
    "references": [
      2019432365,
      1789140488,
      1938730539,
      1983885921,
      2000209451,
      2016589492,
      2087639991,
      2132831248,
      1984260131
    ],
    "year": "1993-01-01",
    "topics": [
      "experimental data",
      "recurrent neural network",
      "machine learning",
      "backpropagation",
      "saccade",
      "artificial intelligence",
      "biological neuron model",
      "computer science",
      "motor neuron",
      "feed forward",
      "pattern recognition",
      "saccadic masking"
    ],
    "papertitle": "saccadic eye movement system modelling using recurrent neural network",
    "confseries": "ISNN",
    "id": 1495194549,
    "abstract": "Saccadic eye-movement is a rapid eye-movement caused by visual or auditory stimulus. There are more than a few models of this system due to relatively abundant experimental data. But existing models are mostly block-diagram models which cannot account for the behavior of neurons at the level of individual neurons, which might explain such important properties for saccades as vector averaging. In this research a connectionist model for the saccadic eye-movement generation system was constructed. It includes signal path ways from superior colliculus, where saccade signal is first initiated, to motor neurons. A recurrent neural network which has various feedforward and feedback connections was trained by using the continuous recurrent backpropagation method. Then the result was compared with neurophysiological data. The result shows that the proposed model does reproduce vector averaging property as well as some individual neuron model in hidden layers exhibit quantitatively similar behavior to recorded neurons.",
    "doi": "10.1109/IJCNN.1993.713858",
    "authors": [
      {
        "country": "South Korea",
        "affiliation": "Yonsei University",
        "name": "jaewoong lee",
        "id": 2168754893,
        "gridid": "grid.15444.30",
        "order": 1
      },
      {
        "country": "South Korea",
        "affiliation": "Yonsei University",
        "name": "yillbyung lee",
        "id": 2134728199,
        "gridid": "grid.15444.30",
        "order": 2
      }
    ],
    "cso_syntactic_topics": [
      "recurrent neural networks",
      "hidden layers",
      "backpropagation algorithm"
    ],
    "cso_annotated": true,
    "cso_semantic_topics": [
      "recurrent neural networks",
      "neural networks",
      "backpropagation algorithm",
      "hidden layers",
      "feedforward neural networks"
    ],
    "cso_enhanced_topics": [
      "recurrent neural networks",
      "feedforward neural networks",
      "backpropagation algorithm",
      "hidden layers",
      "neural networks",
      "machine learning",
      "artificial intelligence",
      "computer science"
    ],
    "types": {
      "Education": 100.0
    },
    "countries": {
      "South Korea": 100.0
    }
  },
  {
    "id": 2386380731,
    "doi": "10.11648/j.sjams.20160403.11",
    "papertitle": "comparative study of backpropagation algorithms in forecasting volatility of crude oil price in nigeria",
    "year": "2016-01-01",
    "citationcount": 0,
    "journame": "science journal of applied mathematics and statistics",
    "topics": [
      "convergence",
      "recurrent neural network",
      "backpropagation",
      "computer science",
      "artificial neural network",
      "algorithm",
      "econometrics",
      "volatility",
      "autoregressive conditional heteroskedasticity"
    ],
    "references": [
      2600445721,
      2156792543,
      2140133004,
      2061160212,
      2155482699,
      2138484437,
      2097288650,
      2578722559,
      1825077972,
      2013675302,
      138885771,
      2613791770,
      1999996900,
      2149223397,
      2144308638,
      2163538133,
      2029126090,
      1823937713,
      2051812123,
      2035942174,
      2081178808,
      2140872619,
      1979575715,
      1999814123
    ],
    "urls": [
      "http://article.sciencepublishinggroup.com/pdf/10.11648.j.sjams.20160403.11.pdf",
      "http://article.sciencepublishinggroup.com/html/10.11648.j.sjams.20160403.11.html",
      "http://www.sciencepublishinggroup.com/journal/paperinfo?journalid=149&doi=10.11648/j.sjams.20160403.11"
    ],
    "authors": [
      {
        "country": "Nigeria",
        "affiliation": "Uthman dan Fodiyo University",
        "name": "s suleiman",
        "id": 2375645076,
        "gridid": "grid.412771.6",
        "order": 1
      },
      {
        "name": "s u gulumbe",
        "id": 2647294597,
        "order": 2
      },
      {
        "name": "b k asare",
        "id": 2649304531,
        "order": 3
      },
      {
        "name": "m abubakar",
        "id": 2461529112,
        "order": 4
      }
    ],
    "abstract": "This paper explores the application of artificial neural network in volatility forecasting. A recurrent neural network has been integrated in to GARCH model to form the hybrid model called GARCH-Neural model. The emphasis of the research is to investigate the performance of the variants of Backpropagation algorithms in training the proposed GARCH-neural model. In the first place, EGARCH (3, 3) was identified in this paper most preferred model describing crude oil price volatility in Nigeria. Similarly, Levenberg-Marquardt (LM) training algorithms were found to be fastest in convergence and also provide most accurate predictions of the volatility when to other training techniques.",
    "cso_syntactic_topics": [
      "training algorithms",
      "recurrent neural networks",
      "neural networks",
      "backpropagation algorithm"
    ],
    "cso_annotated": true,
    "cso_semantic_topics": [
      "backpropagation algorithm",
      "feedforward neural networks",
      "training algorithms",
      "neural networks",
      "recurrent neural networks"
    ],
    "cso_enhanced_topics": [
      "recurrent neural networks",
      "training algorithms",
      "backpropagation algorithm",
      "feedforward neural networks",
      "neural networks",
      "machine learning",
      "artificial intelligence",
      "computer science"
    ],
    "types": {
      "Education": 100.0
    },
    "countries": {
      "Nigeria": 100.0
    }
  },
  {
    "id": 2517779883,
    "doi": "10.1109/CCDC.2016.7531434",
    "papertitle": "neural network modeling of magneto rheological elastomer isolator",
    "year": "2016-01-01",
    "citationcount": 0,
    "confseries": "CCDC",
    "confname": "CCDC 2016",
    "confplace": "",
    "topics": [
      "control engineering",
      "isolator",
      "experimental data",
      "elastomer",
      "recurrent neural network",
      "computer science",
      "hysteresis",
      "artificial neural network",
      "controllability",
      "magnetorheological elastomer",
      "control theory"
    ],
    "references": [
      2018747629,
      1606608212,
      2030705010,
      2080936569,
      2133924494,
      2016589492,
      2027569508,
      2129629362,
      2058501120,
      2124463933,
      2171800554,
      1973207576,
      2022529413,
      2118606679,
      1990655552,
      2031409860,
      2103396378,
      1967226435,
      2037768572
    ],
    "urls": [
      "http://ieeexplore.ieee.org/document/7531434/"
    ],
    "authors": [
      {
        "country": "China",
        "affiliation": "Chongqing University",
        "name": "guanyao liao",
        "id": 2507239666,
        "gridid": "grid.190737.b",
        "order": 1
      },
      {
        "country": "China",
        "affiliation": "Chongqing University",
        "name": "jie fu",
        "id": 2480323822,
        "gridid": "grid.190737.b",
        "order": 2
      },
      {
        "country": "China",
        "affiliation": "Chongqing University",
        "name": "peidong li",
        "id": 2115799969,
        "gridid": "grid.190737.b",
        "order": 3
      },
      {
        "country": "China",
        "affiliation": "Chongqing University",
        "name": "miao yu",
        "id": 2210067113,
        "gridid": "grid.190737.b",
        "order": 4
      }
    ],
    "abstract": "Due to the stiffness and damping controllability of magnetorheological elastomer under external magnetic field, it has attracted great attention in the field of vibration control. In order to realize the vibration control system, accurate modeling of magnetorheological elastomer isolator is necessary. However, for the highly nonlinearity and inherently hysteresis of isolator, the existing parametric modeling methods are required to identify too many parameters and the corresponding inverse model cannot be derived from it. Therefore, this paper proposes a nonparametric neural network to approximate the dynamic behaviors of the magnetorheological elastomer isolator. Firstly, the dynamic characteristics of the isolator with shear-compression mixed mode are experimentally tested under different loading conditions. Next, based on these experimental data, the forward model of the isolator is established by using recurrent neural network. Finally, the effectiveness of the network model is validated by comparing the experimental and predicted responses of the isolator, and the results show that the performance of recurrent neural network outperforms that of BP network.",
    "cso_syntactic_topics": [
      "control systems",
      "recurrent neural networks",
      "neural networks",
      "bp networks"
    ],
    "cso_annotated": true,
    "cso_semantic_topics": [
      "neural networks",
      "control systems",
      "recurrent neural networks",
      "feedforward neural networks",
      "network architecture"
    ],
    "cso_enhanced_topics": [
      "control systems",
      "recurrent neural networks",
      "bp networks",
      "feedforward neural networks",
      "network architecture",
      "neural networks",
      "computer systems",
      "bp neural networks",
      "network protocols",
      "machine learning",
      "computer science",
      "backpropagation algorithm",
      "internet",
      "computer network",
      "artificial intelligence"
    ],
    "types": {
      "Education": 100.0
    },
    "countries": {
      "China": 100.0
    }
  },
  {
    "citationcount": 3,
    "cso_annotated": true,
    "references": [
      2788022833,
      2113826388,
      2127163928,
      2038566421,
      2170367345,
      2538218808,
      2119987934
    ],
    "year": "2007-01-01",
    "topics": [
      "recurrent neural network",
      "governor",
      "computer science",
      "electricity generation",
      "exciter",
      "control theory",
      "electric power system",
      "genetic algorithm",
      "identifier",
      "controller"
    ],
    "papertitle": "power system stabilizer for multi machine using genetic algorithms based on recurrent neural network",
    "confseries": "ICICIC",
    "abstract": "This paper presents a novel approach to combine genetic algorithm (GA) with a new recurrent neural network (RNN) to design a genetic algorithm based on recurrent neural networks power system stabilizer (GARNNPSS) for multi machine power system. The GARNNPSS consists of a recurrent neural network identifier (RNNI) that tracks and identifies the power generator and a recurrent neural network controller (RNNC) that supplies an adaptive signal to the governor and exciter to damp the power system oscillation. Both RNNI and RNNC are firstly trained offline by GA to find the optimal learning rates, and then online to damp the oscillations of multi-machine power system. The proposed GARNNPSS is simulated for three-generator power system. The simulation results demonstrate the effectiveness of the proposed GARNNPSS and its optimal performance. The operating range of the proposed control scheme was demonstrated as better than that of the conventional PSS.",
    "cso_syntactic_topics": [
      "genetic algorithms",
      "recurrent neural networks",
      "learning"
    ],
    "urls": [
      "http://ieeexplore.ieee.org/document/4427921/",
      "https://www.computer.org/web/csdl/index/-/csdl/proceedings/icicic/2007/2882/00/28820276-abs.html",
      "http://yadda.icm.edu.pl/yadda/element/bwmeta1.element.ieee-000004427921"
    ],
    "cso_semantic_topics": [
      "genetic algorithms",
      "recurrent neural networks",
      "neural networks",
      "learning",
      "feedforward neural networks"
    ],
    "id": 2110690891,
    "cso_enhanced_topics": [
      "feedforward neural networks",
      "neural networks",
      "genetic algorithms",
      "recurrent neural networks",
      "learning",
      "machine learning",
      "artificial intelligence",
      "education",
      "computer science"
    ],
    "doi": "10.1109/ICICIC.2007.460",
    "authors": [
      {
        "country": "Taiwan",
        "affiliation": "National Cheng Kung University",
        "name": "chunjung chen",
        "id": 2697913398,
        "gridid": "grid.64523.36",
        "order": 1
      },
      {
        "country": "Taiwan",
        "affiliation": "National Cheng Kung University",
        "name": "tienchi chen",
        "id": 2149537263,
        "gridid": "grid.64523.36",
        "order": 2
      }
    ],
    "types": {
      "Education": 100.0
    },
    "countries": {
      "Taiwan": 100.0
    }
  },
  {
    "id": 2543646542,
    "doi": "10.1109/ICSMB.2010.5735410",
    "papertitle": "comparison of ann models to predict ldl level in diabetes mellitus type 2",
    "year": "2010-01-01",
    "citationcount": 0,
    "confseries": "ICONS",
    "topics": [
      "probabilistic neural network",
      "vascular disease",
      "lipid profile",
      "computer science",
      "cholesterol",
      "insulin",
      "control theory",
      "diabetes mellitus"
    ],
    "references": [
      2047922146,
      2002415185,
      2016979930,
      2123380119,
      1964168965,
      1983024255,
      121025421,
      1965087873,
      1991910517,
      2533379268,
      2022514969,
      2094479470,
      2117911070,
      90062671
    ],
    "urls": [
      "http://ieeexplore.ieee.org/lpdocs/epic03/wrapper.htm?arnumber=5735410",
      "http://yadda.icm.edu.pl/yadda/element/bwmeta1.element.ieee-000005735410"
    ],
    "authors": [
      {
        "order": 2,
        "id": 278376181,
        "name": "bipan tudu",
        "gridid": "grid.216499.1",
        "affiliation": "Jadavpur University",
        "country": "India"
      },
      {
        "order": 1,
        "id": 2161309470,
        "name": "monisha chakraborty",
        "gridid": "grid.216499.1",
        "affiliation": "Jadavpur University",
        "country": "India"
      }
    ],
    "abstract": "Diabetes Mellitus type 2 (T2DM) is the disorder of hormone insulin. Abnormal insulin action increases the free fatty acid pool and favours the formation of low-density lipoprotein cholesterol (LDL-C). Increase in the level of LDL-C causes deposition of plaques in the vascular wall. This is responsible for vascular events like coronary vascular disease, peripheral vascular disease and neuropathies in T2DM patients. So, we need to monitor the levels of lipid profile of patients who are suffering from T2DM for long duration, to prevent them from peripheral as well as coronary vascular diseases. But a major part of the population of our country is below the poverty line and it is difficult for them to afford for the cost required for all these biochemical tests. In this paper, we presented two artificial neural network (ANN) based computational models: (1) back propagation-multilayer perceptron (BP-MLP) and (2) probabilistic neural network (PNN) for comparative study of prediction of LDL-C level. The predicted results were validated with clinical experimental results.",
    "cso_syntactic_topics": [
      "ann",
      "neural networks"
    ],
    "cso_annotated": true,
    "cso_semantic_topics": [
      "ann",
      "neural networks",
      "multilayer perceptrons",
      "feedforward neural networks",
      "mlp neural networks"
    ],
    "cso_enhanced_topics": [
      "mlp neural networks",
      "ann",
      "multilayer perceptrons",
      "feedforward neural networks",
      "neural networks",
      "backpropagation algorithm",
      "machine learning",
      "artificial intelligence",
      "computer science"
    ],
    "types": {
      "Education": 100.0
    },
    "countries": {
      "India": 100.0
    }
  },
  {
    "id": 776515205,
    "doi": "",
    "papertitle": "exploration of combining echo state network learning with recurrent neural network learning techniques",
    "year": "2004-01-01",
    "citationcount": 0,
    "topics": [
      "types of artificial neural networks",
      "echo state network",
      "recurrent neural network",
      "machine learning",
      "competitive learning",
      "artificial intelligence",
      "time delay neural network",
      "artificial neural network",
      "computer science",
      "unsupervised learning",
      "pattern recognition",
      "deep learning"
    ],
    "urls": [
      "http://pubman.mpdl.mpg.de/pubman/item/escidoc:1791976",
      "http://qa-pubman.mpdl.mpg.de/pubman/item/escidoc:1791976"
    ],
    "authors": [
      {
        "order": 1,
        "id": 2703754683,
        "name": "d erhan",
        "gridid": "grid.4372.2",
        "affiliation": "Max Planck Society",
        "country": "Germany"
      }
    ],
    "cso_syntactic_topics": [
      "echo state networks",
      "learning",
      "recurrent neural networks"
    ],
    "cso_annotated": true,
    "cso_semantic_topics": [
      "echo state networks",
      "learning",
      "recurrent neural networks",
      "neural networks",
      "feedforward neural networks"
    ],
    "cso_enhanced_topics": [
      "neural networks",
      "feedforward neural networks",
      "recurrent neural networks",
      "echo state networks",
      "learning",
      "machine learning",
      "education",
      "artificial intelligence",
      "computer science"
    ],
    "types": {
      "Nonprofit": 100.0
    },
    "countries": {
      "Germany": 100.0
    }
  }
]